[gd_scene load_steps=4 format=3 uid="uid://c4kqvi4ix7rm6"]

[ext_resource type="Script" path="res://Box/Box.gd" id="1_snqh2"]
[ext_resource type="Texture2D" uid="uid://bsru5cvupyhn8" path="res://Box/metal.png" id="2_jdq8f"]

[sub_resource type="RectangleShape2D" id="RectangleShape2D_857x5"]
size = Vector2(50, 50)

[node name="Box" type="CharacterBody2D" groups=["pushable"]]
position = Vector2(408, 312)
script = ExtResource("1_snqh2")
Gravity = 19.6

[node name="Metal" type="Sprite2D" parent="."]
z_index = -1
scale = Vector2(0.05, 0.05)
texture = ExtResource("2_jdq8f")

[node name="CollisionShape2D" type="CollisionShape2D" parent="."]
shape = SubResource("RectangleShape2D_857x5")
